lab4/ControlElectromotor1/Week 5/simulation/qsim/PWM.msim.vcd
$comment
	File created using the following command:
		vcd file PWM.msim.vcd -direction
$end
$date
	Mon Mar 24 19:34:55 2025
$end
$version
	ModelSim Version 10.5b
$end
$timescale
	1ps
$end

$scope module PWM_vlg_vec_tst $end
$var reg 8 ! A [7:0] $end
$var reg 1 " clk $end
$var reg 1 # GND $end
$var wire 1 $ PWM $end

$scope module i1 $end
$var wire 1 % gnd $end
$var wire 1 & vcc $end
$var wire 1 ' unknown $end
$var tri1 1 ( devclrn $end
$var tri1 1 ) devpor $end
$var tri1 1 * devoe $end
$var wire 1 + GND~input_o $end
$var wire 1 , PWM~output_o $end
$var wire 1 - clk~input_o $end
$var wire 1 . clk~inputclkctrl_outclk $end
$var wire 1 / A[7]~input_o $end
$var wire 1 0 inst|count[0]~21_combout $end
$var wire 1 1 inst|count[1]~7_combout $end
$var wire 1 2 inst|count[1]~8 $end
$var wire 1 3 inst|count[2]~9_combout $end
$var wire 1 4 inst|count[2]~10 $end
$var wire 1 5 inst|count[3]~11_combout $end
$var wire 1 6 inst|count[3]~12 $end
$var wire 1 7 inst|count[4]~13_combout $end
$var wire 1 8 inst|count[4]~14 $end
$var wire 1 9 inst|count[5]~15_combout $end
$var wire 1 : inst|count[5]~16 $end
$var wire 1 ; inst|count[6]~17_combout $end
$var wire 1 < inst|count[6]~18 $end
$var wire 1 = inst|count[7]~19_combout $end
$var wire 1 > A[6]~input_o $end
$var wire 1 ? A[5]~input_o $end
$var wire 1 @ A[4]~input_o $end
$var wire 1 A A[3]~input_o $end
$var wire 1 B A[2]~input_o $end
$var wire 1 C A[1]~input_o $end
$var wire 1 D A[0]~input_o $end
$var wire 1 E inst1|LessThan0~1_cout $end
$var wire 1 F inst1|LessThan0~3_cout $end
$var wire 1 G inst1|LessThan0~5_cout $end
$var wire 1 H inst1|LessThan0~7_cout $end
$var wire 1 I inst1|LessThan0~9_cout $end
$var wire 1 J inst1|LessThan0~11_cout $end
$var wire 1 K inst1|LessThan0~13_cout $end
$var wire 1 L inst1|LessThan0~14_combout $end
$var wire 1 M inst2|Q~q $end
$var wire 1 N inst|count [7] $end
$var wire 1 O inst|count [6] $end
$var wire 1 P inst|count [5] $end
$var wire 1 Q inst|count [4] $end
$var wire 1 R inst|count [3] $end
$var wire 1 S inst|count [2] $end
$var wire 1 T inst|count [1] $end
$var wire 1 U inst|count [0] $end
$upscope $end
$upscope $end
$enddefinitions $end
#0
$dumpvars
b110000 !
0"
x#
0$
0%
1&
x'
1(
1)
1*
x+
0,
0-
0.
0/
10
01
02
03
14
05
06
07
18
09
0:
0;
1<
0=
0>
1?
1@
0A
0B
0C
0D
0E
1F
0G
1H
0I
1J
0K
0L
0M
0U
0T
0S
0R
0Q
0P
0O
0N
$end
#1000
1"
1-
1.
1U
1E
11
00
0F
1G
0H
#2000
0"
0-
0.
#3000
1"
1-
1.
1T
0U
0E
10
#4000
0"
0-
0.
#5000
1"
1-
1.
1U
1E
12
01
00
13
#6000
0"
0-
0.
#7000
1"
1-
1.
1S
0T
0U
04
02
0E
03
10
14
1F
15
13
05
#8000
0"
0-
0.
#9000
1"
1-
1.
1U
1E
11
00
0F
#10000
0"
0-
0.
#11000
1"
1-
1.
1T
0U
0E
10
#12000
0"
0-
0.
#13000
1"
1-
1.
1U
1E
12
01
00
04
03
15
#14000
0"
0-
0.
#15000
1"
1-
1.
1R
0S
0T
0U
16
14
02
0E
05
13
10
06
1F
17
15
03
0G
07
#16000
0"
0-
0.
#17000
1"
1-
1.
1U
1E
11
00
0F
1G
#18000
0"
0-
0.
#19000
1"
1-
1.
1T
0U
0E
10
#20000
0"
0-
0.
#21000
1"
1-
1.
1U
1E
12
01
00
13
#22000
0"
0-
0.
#23000
1"
1-
1.
1S
0T
0U
04
02
0E
03
10
16
14
1F
05
13
06
17
15
07
#24000
0"
0-
0.
#25000
1"
1-
1.
1U
1E
11
00
0F
#26000
0"
0-
0.
#27000
1"
1-
1.
1T
0U
0E
10
#28000
0"
0-
0.
#29000
1"
1-
1.
1U
1E
12
01
00
04
03
16
05
17
#30000
0"
0-
0.
#31000
1"
1-
1.
1Q
0R
0S
0T
0U
1I
08
06
14
02
0E
07
15
13
10
18
1F
19
17
05
03
0G
09
1H
0I
#32000
0"
0-
0.
#33000
1"
1-
1.
1U
1E
11
00
0F
1G
0H
1I
#34000
0"
0-
0.
#35000
1"
1-
1.
1T
0U
0E
10
#36000
0"
0-
0.
#37000
1"
1-
1.
1U
1E
12
01
00
13
#38000
0"
0-
0.
#39000
1"
1-
1.
1S
0T
0U
04
02
0E
03
10
14
1F
15
13
05
#40000
0"
0-
0.
#41000
1"
1-
1.
1U
1E
11
00
0F
#42000
0"
0-
0.
#43000
1"
1-
1.
1T
0U
0E
10
#44000
0"
0-
0.
#45000
1"
1-
1.
1U
1E
12
01
00
04
03
15
#46000
0"
0-
0.
#47000
1"
1-
1.
1R
0S
0T
0U
16
14
02
0E
05
13
10
08
06
1F
07
15
03
18
0G
19
17
09
#48000
0"
0-
0.
#49000
1"
1-
1.
1U
1E
11
00
0F
1G
#50000
0"
0-
0.
#51000
1"
1-
1.
1T
0U
0E
10
#52000
0"
0-
0.
#53000
1"
1-
1.
1U
1E
12
01
00
13
#54000
0"
0-
0.
#55000
1"
1-
1.
1S
0T
0U
04
02
0E
03
10
16
14
1F
05
13
08
06
07
15
18
19
17
09
#56000
0"
0-
0.
#57000
1"
1-
1.
1U
1E
11
00
0F
#58000
0"
0-
0.
#59000
1"
1-
1.
1T
0U
0E
10
#60000
0"
0-
0.
#61000
1"
1-
1.
1U
1E
12
01
00
04
03
16
05
08
07
19
#62000
0"
0-
0.
#63000
1"
1-
1.
1P
0Q
0R
0S
0T
0U
0J
1:
0I
18
06
14
02
0E
09
17
15
13
10
1K
1J
0:
1F
1;
19
07
05
03
0K
0G
1L
0;
1H
0L
#64000
0"
0-
0.
#65000
1"
1-
1.
1U
1E
11
00
0F
1G
0H
#66000
0"
0-
0.
#67000
1"
1-
1.
1T
0U
0E
10
#68000
0"
0-
0.
#69000
1"
1-
1.
1U
1E
12
01
00
13
#70000
0"
0-
0.
#71000
1"
1-
1.
1S
0T
0U
04
02
0E
03
10
14
1F
15
13
05
#72000
0"
0-
0.
#73000
1"
1-
1.
1U
1E
11
00
0F
#74000
0"
0-
0.
#75000
1"
1-
1.
1T
0U
0E
10
#76000
0"
0-
0.
#77000
1"
1-
1.
1U
1E
12
01
00
04
03
15
#78000
0"
0-
0.
#79000
1"
1-
1.
1R
0S
0T
0U
16
14
02
0E
05
13
10
06
1F
17
15
03
0G
07
#80000
0"
0-
0.
#81000
1"
1-
1.
1U
1E
11
00
0F
1G
#82000
0"
0-
0.
#83000
1"
1-
1.
1T
0U
0E
10
#84000
0"
0-
0.
#85000
1"
1-
1.
1U
1E
12
01
00
13
#86000
0"
0-
0.
#87000
1"
1-
1.
1S
0T
0U
04
02
0E
03
10
16
14
1F
05
13
06
17
15
07
#88000
0"
0-
0.
#89000
1"
1-
1.
1U
1E
11
00
0F
#90000
0"
0-
0.
#91000
1"
1-
1.
1T
0U
0E
10
#92000
0"
0-
0.
#93000
1"
1-
1.
1U
1E
12
01
00
04
03
16
05
17
#94000
0"
0-
0.
#95000
1"
1-
1.
1Q
0R
0S
0T
0U
1I
08
06
14
02
0E
07
15
13
10
0J
1:
18
1F
09
17
05
03
1K
0:
0G
1;
19
1H
1L
0;
0I
1J
0K
0L
#96000
0"
0-
0.
#97000
1"
1-
1.
1U
1E
11
00
0F
1G
0H
1I
0J
1K
1L
#98000
0"
0-
0.
#99000
1"
1-
1.
1T
0U
1M
1,
0E
1$
10
#100000
0"
0-
0.
#101000
1"
1-
1.
1U
1E
12
01
00
13
#102000
0"
0-
0.
#103000
1"
1-
1.
1S
0T
0U
04
02
0E
03
10
14
1F
15
13
05
#104000
0"
0-
0.
#105000
1"
1-
1.
1U
1E
11
00
0F
#106000
0"
0-
0.
#107000
1"
1-
1.
1T
0U
0E
10
#108000
0"
0-
0.
#109000
1"
1-
1.
1U
1E
12
01
00
04
03
15
#110000
0"
0-
0.
#111000
1"
1-
1.
1R
0S
0T
0U
16
14
02
0E
05
13
10
08
06
1F
07
15
03
1:
18
0G
09
17
0:
1;
19
0;
#112000
0"
0-
0.
#113000
1"
1-
1.
1U
1E
11
00
0F
1G
#114000
0"
0-
0.
#115000
1"
1-
1.
1T
0U
0E
10
#116000
0"
0-
0.
#117000
1"
1-
1.
1U
1E
12
01
00
13
#118000
0"
0-
0.
#119000
1"
1-
1.
1S
0T
0U
04
02
0E
03
10
16
14
1F
05
13
08
06
07
15
1:
18
09
17
0:
1;
19
0;
#120000
0"
0-
0.
#121000
1"
1-
1.
1U
1E
11
00
0F
#122000
0"
0-
0.
#123000
1"
1-
1.
1T
0U
0E
10
#124000
0"
0-
0.
#125000
1"
1-
1.
1U
1E
12
01
00
04
03
16
05
08
07
1:
09
1;
#126000
0"
0-
0.
#127000
1"
1-
1.
1O
0P
0Q
0R
0S
0T
0U
0<
1J
0:
0I
18
06
14
02
0E
0;
19
17
15
13
10
1<
1F
1=
1;
09
07
05
03
0G
0=
1H
#128000
0"
0-
0.
#129000
1"
1-
1.
1U
1E
11
00
0F
1G
0H
#130000
0"
0-
0.
#131000
1"
1-
1.
1T
0U
0E
10
#132000
0"
0-
0.
#133000
1"
1-
1.
1U
1E
12
01
00
13
#134000
0"
0-
0.
#135000
1"
1-
1.
1S
0T
0U
04
02
0E
03
10
14
1F
15
13
05
#136000
0"
0-
0.
#137000
1"
1-
1.
1U
1E
11
00
0F
#138000
0"
0-
0.
#139000
1"
1-
1.
1T
0U
0E
10
#140000
0"
0-
0.
#141000
1"
1-
1.
1U
1E
12
01
00
04
03
15
#142000
0"
0-
0.
#143000
1"
1-
1.
1R
0S
0T
0U
16
14
02
0E
05
13
10
06
1F
17
15
03
0G
07
#144000
0"
0-
0.
#145000
1"
1-
1.
1U
1E
11
00
0F
1G
#146000
0"
0-
0.
#147000
1"
1-
1.
1T
0U
0E
10
#148000
0"
0-
0.
#149000
1"
1-
1.
1U
1E
12
01
00
13
#150000
0"
0-
0.
#151000
1"
1-
1.
1S
0T
0U
04
02
0E
03
10
16
14
1F
05
13
06
17
15
07
#152000
0"
0-
0.
#153000
1"
1-
1.
1U
1E
11
00
0F
#154000
0"
0-
0.
#155000
1"
1-
1.
1T
0U
0E
10
#156000
0"
0-
0.
#157000
1"
1-
1.
1U
1E
12
01
00
04
03
16
05
17
#158000
0"
0-
0.
#159000
1"
1-
1.
1Q
0R
0S
0T
0U
1I
08
06
14
02
0E
07
15
13
10
18
1F
19
17
05
03
0G
09
1H
0I
#160000
0"
0-
0.
#161000
1"
1-
1.
1U
1E
11
00
0F
1G
0H
1I
#162000
0"
0-
0.
#163000
1"
1-
1.
1T
0U
0E
10
#164000
0"
0-
0.
#165000
1"
1-
1.
1U
1E
12
01
00
13
#166000
0"
0-
0.
#167000
1"
1-
1.
1S
0T
0U
04
02
0E
03
10
14
1F
15
13
05
#168000
0"
0-
0.
#169000
1"
1-
1.
1U
1E
11
00
0F
#170000
0"
0-
0.
#171000
1"
1-
1.
1T
0U
0E
10
#172000
0"
0-
0.
#173000
1"
1-
1.
1U
1E
12
01
00
04
03
15
#174000
0"
0-
0.
#175000
1"
1-
1.
1R
0S
0T
0U
16
14
02
0E
05
13
10
08
06
1F
07
15
03
18
0G
19
17
09
#176000
0"
0-
0.
#177000
1"
1-
1.
1U
1E
11
00
0F
1G
#178000
0"
0-
0.
#179000
1"
1-
1.
1T
0U
0E
10
#180000
0"
0-
0.
#181000
1"
1-
1.
1U
1E
12
01
00
13
#182000
0"
0-
0.
#183000
1"
1-
1.
1S
0T
0U
04
02
0E
03
10
16
14
1F
05
13
08
06
07
15
18
19
17
09
#184000
0"
0-
0.
#185000
1"
1-
1.
1U
1E
11
00
0F
#186000
0"
0-
0.
#187000
1"
1-
1.
1T
0U
0E
10
#188000
0"
0-
0.
#189000
1"
1-
1.
1U
1E
12
01
00
04
03
16
05
08
07
19
#190000
0"
0-
0.
#191000
1"
1-
1.
1P
0Q
0R
0S
0T
0U
0J
1:
0I
18
06
14
02
0E
09
17
15
13
10
0<
1J
0:
1F
0;
19
07
05
03
1<
0G
1=
1;
1H
0=
#192000
0"
0-
0.
#193000
1"
1-
1.
1U
1E
11
00
0F
1G
0H
#194000
0"
0-
0.
#195000
1"
1-
1.
1T
0U
0E
10
#196000
0"
0-
0.
#197000
1"
1-
1.
1U
1E
12
01
00
13
#198000
0"
0-
0.
#199000
1"
1-
1.
1S
0T
0U
04
02
0E
03
10
14
1F
15
13
05
#200000
0"
0-
0.
#201000
1"
1-
1.
1U
1E
11
00
0F
#202000
0"
0-
0.
#203000
1"
1-
1.
1T
0U
0E
10
#204000
0"
0-
0.
#205000
1"
1-
1.
1U
1E
12
01
00
04
03
15
#206000
0"
0-
0.
#207000
1"
1-
1.
1R
0S
0T
0U
16
14
02
0E
05
13
10
06
1F
17
15
03
0G
07
#208000
0"
0-
0.
#209000
1"
1-
1.
1U
1E
11
00
0F
1G
#210000
0"
0-
0.
#211000
1"
1-
1.
1T
0U
0E
10
#212000
0"
0-
0.
#213000
1"
1-
1.
1U
1E
12
01
00
13
#214000
0"
0-
0.
#215000
1"
1-
1.
1S
0T
0U
04
02
0E
03
10
16
14
1F
05
13
06
17
15
07
#216000
0"
0-
0.
#217000
1"
1-
1.
1U
1E
11
00
0F
#218000
0"
0-
0.
#219000
1"
1-
1.
1T
0U
0E
10
#220000
0"
0-
0.
#221000
1"
1-
1.
1U
1E
12
01
00
04
03
16
05
17
#222000
0"
0-
0.
#223000
1"
1-
1.
1Q
0R
0S
0T
0U
1I
08
06
14
02
0E
07
15
13
10
0J
1:
18
1F
09
17
05
03
0<
0:
0G
0;
19
1<
1H
1=
1;
0I
0=
1J
#224000
0"
0-
0.
#225000
1"
1-
1.
1U
1E
11
00
0F
1G
0H
1I
0J
#226000
0"
0-
0.
#227000
1"
1-
1.
1T
0U
0E
10
#228000
0"
0-
0.
#229000
1"
1-
1.
1U
1E
12
01
00
13
#230000
0"
0-
0.
#231000
1"
1-
1.
1S
0T
0U
04
02
0E
03
10
14
1F
15
13
05
#232000
0"
0-
0.
#233000
1"
1-
1.
1U
1E
11
00
0F
#234000
0"
0-
0.
#235000
1"
1-
1.
1T
0U
0E
10
#236000
0"
0-
0.
#237000
1"
1-
1.
1U
1E
12
01
00
04
03
15
#238000
0"
0-
0.
#239000
1"
1-
1.
1R
0S
0T
0U
16
14
02
0E
05
13
10
08
06
1F
07
15
03
1:
18
0G
09
17
0<
0:
0;
19
1<
1=
1;
0=
#240000
0"
0-
0.
#241000
1"
1-
1.
1U
1E
11
00
0F
1G
#242000
0"
0-
0.
#243000
1"
1-
1.
1T
0U
0E
10
#244000
0"
0-
0.
#245000
1"
1-
1.
1U
1E
12
01
00
13
#246000
0"
0-
0.
#247000
1"
1-
1.
1S
0T
0U
04
02
0E
03
10
16
14
1F
05
13
08
06
07
15
1:
18
09
17
0<
0:
0;
19
1<
1=
1;
0=
#248000
0"
0-
0.
#249000
1"
1-
1.
1U
1E
11
00
0F
#250000
0"
0-
0.
#251000
1"
1-
1.
1T
0U
0E
10
#252000
0"
0-
0.
#253000
1"
1-
1.
1U
1E
12
01
00
04
03
16
05
08
07
1:
09
0<
0;
1=
#254000
0"
0-
0.
#255000
1"
1-
1.
1N
0O
0P
0Q
0R
0S
0T
0U
1<
1J
0:
0I
18
06
14
02
0E
0=
1;
19
17
15
13
10
0K
1F
1=
0;
09
07
05
03
0G
1H
#256000
0"
0-
0.
#257000
1"
1-
1.
1U
1E
11
00
0F
1G
0H
#258000
0"
0-
0.
#259000
1"
1-
1.
1T
0U
0E
10
#260000
0"
0-
0.
#261000
1"
1-
1.
1U
1E
12
01
00
13
#262000
0"
0-
0.
#263000
1"
1-
1.
1S
0T
0U
04
02
0E
03
10
14
1F
15
13
05
#264000
0"
0-
0.
#265000
1"
1-
1.
1U
1E
11
00
0F
#266000
0"
0-
0.
#267000
1"
1-
1.
1T
0U
0E
10
#268000
0"
0-
0.
#269000
1"
1-
1.
1U
1E
12
01
00
04
03
15
#270000
0"
0-
0.
#271000
1"
1-
1.
1R
0S
0T
0U
16
14
02
0E
05
13
10
06
1F
17
15
03
0G
07
#272000
0"
0-
0.
#273000
1"
1-
1.
1U
1E
11
00
0F
1G
#274000
0"
0-
0.
#275000
1"
1-
1.
1T
0U
0E
10
#276000
0"
0-
0.
#277000
1"
1-
1.
1U
1E
12
01
00
13
#278000
0"
0-
0.
#279000
1"
1-
1.
1S
0T
0U
04
02
0E
03
10
16
14
1F
05
13
06
17
15
07
#280000
0"
0-
0.
#281000
1"
1-
1.
1U
1E
11
00
0F
#282000
0"
0-
0.
#283000
1"
1-
1.
1T
0U
0E
10
#284000
0"
0-
0.
#285000
1"
1-
1.
1U
1E
12
01
00
04
03
16
05
17
#286000
0"
0-
0.
#287000
1"
1-
1.
1Q
0R
0S
0T
0U
1I
08
06
14
02
0E
07
15
13
10
18
1F
19
17
05
03
0G
09
1H
0I
#288000
0"
0-
0.
#289000
1"
1-
1.
1U
1E
11
00
0F
1G
0H
1I
#290000
0"
0-
0.
#291000
1"
1-
1.
1T
0U
0E
10
#292000
0"
0-
0.
#293000
1"
1-
1.
1U
1E
12
01
00
13
#294000
0"
0-
0.
#295000
1"
1-
1.
1S
0T
0U
04
02
0E
03
10
14
1F
15
13
05
#296000
0"
0-
0.
#297000
1"
1-
1.
1U
1E
11
00
0F
#298000
0"
0-
0.
#299000
1"
1-
1.
1T
0U
0E
10
#300000
0"
0-
0.
#301000
1"
1-
1.
1U
1E
12
01
00
04
03
15
#302000
0"
0-
0.
#303000
1"
1-
1.
1R
0S
0T
0U
16
14
02
0E
05
13
10
08
06
1F
07
15
03
18
0G
19
17
09
#304000
0"
0-
0.
#305000
1"
1-
1.
1U
1E
11
00
0F
1G
#306000
0"
0-
0.
#307000
1"
1-
1.
1T
0U
0E
10
#308000
0"
0-
0.
#309000
1"
1-
1.
1U
1E
12
01
00
13
#310000
0"
0-
0.
#311000
1"
1-
1.
1S
0T
0U
04
02
0E
03
10
16
14
1F
05
13
08
06
07
15
18
19
17
09
#312000
0"
0-
0.
#313000
1"
1-
1.
1U
1E
11
00
0F
#314000
0"
0-
0.
#315000
1"
1-
1.
1T
0U
0E
10
#316000
0"
0-
0.
#317000
1"
1-
1.
1U
1E
12
01
00
04
03
16
05
08
07
19
#318000
0"
0-
0.
#319000
1"
1-
1.
1P
0Q
0R
0S
0T
0U
0J
1:
0I
18
06
14
02
0E
09
17
15
13
10
1K
1J
0:
1F
1;
19
07
05
03
0K
0G
0;
1H
#320000
0"
0-
0.
#321000
1"
1-
1.
1U
1E
11
00
0F
1G
0H
#322000
0"
0-
0.
#323000
1"
1-
1.
1T
0U
0E
10
#324000
0"
0-
0.
#325000
1"
1-
1.
1U
1E
12
01
00
13
#326000
0"
0-
0.
#327000
1"
1-
1.
1S
0T
0U
04
02
0E
03
10
14
1F
15
13
05
#328000
0"
0-
0.
#329000
1"
1-
1.
1U
1E
11
00
0F
#330000
0"
0-
0.
#331000
1"
1-
1.
1T
0U
0E
10
#332000
0"
0-
0.
#333000
1"
1-
1.
1U
1E
12
01
00
04
03
15
#334000
0"
0-
0.
#335000
1"
1-
1.
1R
0S
0T
0U
16
14
02
0E
05
13
10
06
1F
17
15
03
0G
07
#336000
0"
0-
0.
#337000
1"
1-
1.
1U
1E
11
00
0F
1G
#338000
0"
0-
0.
#339000
1"
1-
1.
1T
0U
0E
10
#340000
0"
0-
0.
#341000
1"
1-
1.
1U
1E
12
01
00
13
#342000
0"
0-
0.
#343000
1"
1-
1.
1S
0T
0U
04
02
0E
03
10
16
14
1F
05
13
06
17
15
07
#344000
0"
0-
0.
#345000
1"
1-
1.
1U
1E
11
00
0F
#346000
0"
0-
0.
#347000
1"
1-
1.
1T
0U
0E
10
#348000
0"
0-
0.
#349000
1"
1-
1.
1U
1E
12
01
00
04
03
16
05
17
#350000
0"
0-
0.
#351000
1"
1-
1.
1Q
0R
0S
0T
0U
1I
08
06
14
02
0E
07
15
13
10
0J
1:
18
1F
09
17
05
03
1K
0:
0G
1;
19
1H
0;
0I
1J
0K
#352000
0"
0-
0.
#353000
1"
1-
1.
1U
1E
11
00
0F
1G
0H
1I
0J
1K
#354000
0"
0-
0.
#355000
1"
1-
1.
1T
0U
0E
10
#356000
0"
0-
0.
#357000
1"
1-
1.
1U
1E
12
01
00
13
#358000
0"
0-
0.
#359000
1"
1-
1.
1S
0T
0U
04
02
0E
03
10
14
1F
15
13
05
#360000
0"
0-
0.
#361000
1"
1-
1.
1U
1E
11
00
0F
#362000
0"
0-
0.
#363000
1"
1-
1.
1T
0U
0E
10
#364000
0"
0-
0.
#365000
1"
1-
1.
1U
1E
12
01
00
04
03
15
#366000
0"
0-
0.
#367000
1"
1-
1.
1R
0S
0T
0U
16
14
02
0E
05
13
10
08
06
1F
07
15
03
1:
18
0G
09
17
0:
1;
19
0;
#368000
0"
0-
0.
#369000
1"
1-
1.
1U
1E
11
00
0F
1G
#370000
0"
0-
0.
#371000
1"
1-
1.
1T
0U
0E
10
#372000
0"
0-
0.
#373000
1"
1-
1.
1U
1E
12
01
00
13
#374000
0"
0-
0.
#375000
1"
1-
1.
1S
0T
0U
04
02
0E
03
10
16
14
1F
05
13
08
06
07
15
1:
18
09
17
0:
1;
19
0;
#376000
0"
0-
0.
#377000
1"
1-
1.
1U
1E
11
00
0F
#378000
0"
0-
0.
#379000
1"
1-
1.
1T
0U
0E
10
#380000
0"
0-
0.
#381000
1"
1-
1.
1U
1E
12
01
00
04
03
16
05
08
07
1:
09
1;
#382000
0"
0-
0.
#383000
1"
1-
1.
1O
0P
0Q
0R
0S
0T
0U
0<
1J
0:
0I
18
06
14
02
0E
0;
19
17
15
13
10
1<
1F
0=
1;
09
07
05
03
0G
1=
1H
#384000
0"
0-
0.
#385000
1"
1-
1.
1U
1E
11
00
0F
1G
0H
#386000
0"
0-
0.
#387000
1"
1-
1.
1T
0U
0E
10
#388000
0"
0-
0.
#389000
1"
1-
1.
1U
1E
12
01
00
13
#390000
0"
0-
0.
#391000
1"
1-
1.
1S
0T
0U
04
02
0E
03
10
14
1F
15
13
05
#392000
0"
0-
0.
#393000
1"
1-
1.
1U
1E
11
00
0F
#394000
0"
0-
0.
#395000
1"
1-
1.
1T
0U
0E
10
#396000
0"
0-
0.
#397000
1"
1-
1.
1U
1E
12
01
00
04
03
15
#398000
0"
0-
0.
#399000
1"
1-
1.
1R
0S
0T
0U
16
14
02
0E
05
13
10
06
1F
17
15
03
0G
07
#400000
0"
0-
0.
#401000
1"
1-
1.
1U
1E
11
00
0F
1G
#402000
0"
0-
0.
#403000
1"
1-
1.
1T
0U
0E
10
#404000
0"
0-
0.
#405000
1"
1-
1.
1U
1E
12
01
00
13
#406000
0"
0-
0.
#407000
1"
1-
1.
1S
0T
0U
04
02
0E
03
10
16
14
1F
05
13
06
17
15
07
#408000
0"
0-
0.
#409000
1"
1-
1.
1U
1E
11
00
0F
#410000
0"
0-
0.
#411000
1"
1-
1.
1T
0U
0E
10
#412000
0"
0-
0.
#413000
1"
1-
1.
1U
1E
12
01
00
04
03
16
05
17
#414000
0"
0-
0.
#415000
1"
1-
1.
1Q
0R
0S
0T
0U
1I
08
06
14
02
0E
07
15
13
10
18
1F
19
17
05
03
0G
09
1H
0I
#416000
0"
0-
0.
#417000
1"
1-
1.
1U
1E
11
00
0F
1G
0H
1I
#418000
0"
0-
0.
#419000
1"
1-
1.
1T
0U
0E
10
#420000
0"
0-
0.
#421000
1"
1-
1.
1U
1E
12
01
00
13
#422000
0"
0-
0.
#423000
1"
1-
1.
1S
0T
0U
04
02
0E
03
10
14
1F
15
13
05
#424000
0"
0-
0.
#425000
1"
1-
1.
1U
1E
11
00
0F
#426000
0"
0-
0.
#427000
1"
1-
1.
1T
0U
0E
10
#428000
0"
0-
0.
#429000
1"
1-
1.
1U
1E
12
01
00
04
03
15
#430000
0"
0-
0.
#431000
1"
1-
1.
1R
0S
0T
0U
16
14
02
0E
05
13
10
08
06
1F
07
15
03
18
0G
19
17
09
#432000
0"
0-
0.
#433000
1"
1-
1.
1U
1E
11
00
0F
1G
#434000
0"
0-
0.
#435000
1"
1-
1.
1T
0U
0E
10
#436000
0"
0-
0.
#437000
1"
1-
1.
1U
1E
12
01
00
13
#438000
0"
0-
0.
#439000
1"
1-
1.
1S
0T
0U
04
02
0E
03
10
16
14
1F
05
13
08
06
07
15
18
19
17
09
#440000
0"
0-
0.
#441000
1"
1-
1.
1U
1E
11
00
0F
#442000
0"
0-
0.
#443000
1"
1-
1.
1T
0U
0E
10
#444000
0"
0-
0.
#445000
1"
1-
1.
1U
1E
12
01
00
04
03
16
05
08
07
19
#446000
0"
0-
0.
#447000
1"
1-
1.
1P
0Q
0R
0S
0T
0U
0J
1:
0I
18
06
14
02
0E
09
17
15
13
10
0<
1J
0:
1F
0;
19
07
05
03
1<
0G
0=
1;
1H
1=
#448000
0"
0-
0.
#449000
1"
1-
1.
1U
1E
11
00
0F
1G
0H
#450000
0"
0-
0.
#451000
1"
1-
1.
1T
0U
0E
10
#452000
0"
0-
0.
#453000
1"
1-
1.
1U
1E
12
01
00
13
#454000
0"
0-
0.
#455000
1"
1-
1.
1S
0T
0U
04
02
0E
03
10
14
1F
15
13
05
#456000
0"
0-
0.
#457000
1"
1-
1.
1U
1E
11
00
0F
#458000
0"
0-
0.
#459000
1"
1-
1.
1T
0U
0E
10
#460000
0"
0-
0.
#461000
1"
1-
1.
1U
1E
12
01
00
04
03
15
#462000
0"
0-
0.
#463000
1"
1-
1.
1R
0S
0T
0U
16
14
02
0E
05
13
10
06
1F
17
15
03
0G
07
#464000
0"
0-
0.
#465000
1"
1-
1.
1U
1E
11
00
0F
1G
#466000
0"
0-
0.
#467000
1"
1-
1.
1T
0U
0E
10
#468000
0"
0-
0.
#469000
1"
1-
1.
1U
1E
12
01
00
13
#470000
0"
0-
0.
#471000
1"
1-
1.
1S
0T
0U
04
02
0E
03
10
16
14
1F
05
13
06
17
15
07
#472000
0"
0-
0.
#473000
1"
1-
1.
1U
1E
11
00
0F
#474000
0"
0-
0.
#475000
1"
1-
1.
1T
0U
0E
10
#476000
0"
0-
0.
#477000
1"
1-
1.
1U
1E
12
01
00
04
03
16
05
17
#478000
0"
0-
0.
#479000
1"
1-
1.
1Q
0R
0S
0T
0U
1I
08
06
14
02
0E
07
15
13
10
0J
1:
18
1F
09
17
05
03
0<
0:
0G
0;
19
1<
1H
0=
1;
0I
1=
1J
#480000
0"
0-
0.
#481000
1"
1-
1.
1U
1E
11
00
0F
1G
0H
1I
0J
#482000
0"
0-
0.
#483000
1"
1-
1.
1T
0U
0E
10
#484000
0"
0-
0.
#485000
1"
1-
1.
1U
1E
12
01
00
13
#486000
0"
0-
0.
#487000
1"
1-
1.
1S
0T
0U
04
02
0E
03
10
14
1F
15
13
05
#488000
0"
0-
0.
#489000
1"
1-
1.
1U
1E
11
00
0F
#490000
0"
0-
0.
#491000
1"
1-
1.
1T
0U
0E
10
#492000
0"
0-
0.
#493000
1"
1-
1.
1U
1E
12
01
00
04
03
15
#494000
0"
0-
0.
#495000
1"
1-
1.
1R
0S
0T
0U
16
14
02
0E
05
13
10
08
06
1F
07
15
03
1:
18
0G
09
17
0<
0:
0;
19
1<
0=
1;
1=
#496000
0"
0-
0.
#497000
1"
1-
1.
1U
1E
11
00
0F
1G
#498000
0"
0-
0.
#499000
1"
1-
1.
1T
0U
0E
10
#500000
0"
0-
0.
#501000
1"
1-
1.
1U
1E
12
01
00
13
#502000
0"
0-
0.
#503000
1"
1-
1.
1S
0T
0U
04
02
0E
03
10
16
14
1F
05
13
08
06
07
15
1:
18
09
17
0<
0:
0;
19
1<
0=
1;
1=
#504000
0"
0-
0.
#505000
1"
1-
1.
1U
1E
11
00
0F
#506000
0"
0-
0.
#507000
1"
1-
1.
1T
0U
0E
10
#508000
0"
0-
0.
#509000
1"
1-
1.
1U
1E
12
01
00
04
03
16
05
08
07
1:
09
0<
0;
0=
#510000
0"
0-
0.
#511000
1"
1-
1.
0N
0O
0P
0Q
0R
0S
0T
0U
1<
1J
0:
0I
18
06
14
02
0E
1=
1;
19
17
15
13
10
0K
1F
0=
0;
09
07
05
03
0G
0L
1H
#512000
0"
0-
0.
#513000
1"
1-
1.
1U
0M
0,
1E
0$
11
00
0F
1G
0H
#514000
0"
0-
0.
#515000
1"
1-
1.
1T
0U
0E
10
#516000
0"
0-
0.
#517000
1"
1-
1.
1U
1E
12
01
00
13
#518000
0"
0-
0.
#519000
1"
1-
1.
1S
0T
0U
04
02
0E
03
10
14
1F
15
13
05
#520000
0"
0-
0.
#521000
1"
1-
1.
1U
1E
11
00
0F
#522000
0"
0-
0.
#523000
1"
1-
1.
1T
0U
0E
10
#524000
0"
0-
0.
#525000
1"
1-
1.
1U
1E
12
01
00
04
03
15
#526000
0"
0-
0.
#527000
1"
1-
1.
1R
0S
0T
0U
16
14
02
0E
05
13
10
06
1F
17
15
03
0G
07
#528000
0"
0-
0.
#529000
1"
1-
1.
1U
1E
11
00
0F
1G
#530000
0"
0-
0.
#531000
1"
1-
1.
1T
0U
0E
10
#532000
0"
0-
0.
#533000
1"
1-
1.
1U
1E
12
01
00
13
#534000
0"
0-
0.
#535000
1"
1-
1.
1S
0T
0U
04
02
0E
03
10
16
14
1F
05
13
06
17
15
07
#536000
0"
0-
0.
#537000
1"
1-
1.
1U
1E
11
00
0F
#538000
0"
0-
0.
#539000
1"
1-
1.
1T
0U
0E
10
