lab3/lab302/simulation/qsim/lab301PWM.msim.vcd
$comment
	File created using the following command:
		vcd file lab301PWM.msim.vcd -direction
$end
$date
	Mon Mar 24 19:27:08 2025
$end
$version
	ModelSim Version 10.5b
$end
$timescale
	1ps
$end

$scope module lab301PWM_vlg_vec_tst $end
$var reg 1 ! clk $end
$var reg 8 " duty [7:0] $end
$var reg 1 # rst_n $end
$var wire 1 $ DAC [7] $end
$var wire 1 % DAC [6] $end
$var wire 1 & DAC [5] $end
$var wire 1 ' DAC [4] $end
$var wire 1 ( DAC [3] $end
$var wire 1 ) DAC [2] $end
$var wire 1 * DAC [1] $end
$var wire 1 + DAC [0] $end

$scope module i1 $end
$var wire 1 , gnd $end
$var wire 1 - vcc $end
$var wire 1 . unknown $end
$var tri1 1 / devclrn $end
$var tri1 1 0 devpor $end
$var tri1 1 1 devoe $end
$var wire 1 2 DAC[0]~output_o $end
$var wire 1 3 DAC[1]~output_o $end
$var wire 1 4 DAC[2]~output_o $end
$var wire 1 5 DAC[3]~output_o $end
$var wire 1 6 DAC[4]~output_o $end
$var wire 1 7 DAC[5]~output_o $end
$var wire 1 8 DAC[6]~output_o $end
$var wire 1 9 DAC[7]~output_o $end
$var wire 1 : clk~input_o $end
$var wire 1 ; clk~inputclkctrl_outclk $end
$var wire 1 < duty[7]~input_o $end
$var wire 1 = duty[6]~input_o $end
$var wire 1 > duty[5]~input_o $end
$var wire 1 ? duty[4]~input_o $end
$var wire 1 @ duty[3]~input_o $end
$var wire 1 A duty[2]~input_o $end
$var wire 1 B duty[1]~input_o $end
$var wire 1 C duty[0]~input_o $end
$var wire 1 D Add1~1_cout $end
$var wire 1 E Add1~3_cout $end
$var wire 1 F Add1~5_cout $end
$var wire 1 G Add1~7_cout $end
$var wire 1 H Add1~9_cout $end
$var wire 1 I Add1~11 $end
$var wire 1 J Add1~13 $end
$var wire 1 K Add1~15 $end
$var wire 1 L Add1~16_combout $end
$var wire 1 M counter[0]~32_combout $end
$var wire 1 N rst_n~input_o $end
$var wire 1 O counter[3]~39 $end
$var wire 1 P counter[4]~40_combout $end
$var wire 1 Q counter[4]~41 $end
$var wire 1 R counter[5]~42_combout $end
$var wire 1 S counter[5]~43 $end
$var wire 1 T counter[6]~44_combout $end
$var wire 1 U counter[6]~45 $end
$var wire 1 V counter[7]~46_combout $end
$var wire 1 W counter[7]~47 $end
$var wire 1 X counter[8]~48_combout $end
$var wire 1 Y counter[8]~49 $end
$var wire 1 Z counter[9]~50_combout $end
$var wire 1 [ counter[9]~51 $end
$var wire 1 \ counter[10]~52_combout $end
$var wire 1 ] counter[10]~53 $end
$var wire 1 ^ counter[11]~54_combout $end
$var wire 1 _ counter[11]~55 $end
$var wire 1 ` counter[12]~56_combout $end
$var wire 1 a counter[12]~57 $end
$var wire 1 b counter[13]~58_combout $end
$var wire 1 c counter[13]~59 $end
$var wire 1 d counter[14]~60_combout $end
$var wire 1 e counter[14]~61 $end
$var wire 1 f counter[15]~62_combout $end
$var wire 1 g counter[15]~63 $end
$var wire 1 h counter[16]~64_combout $end
$var wire 1 i counter[16]~65 $end
$var wire 1 j counter[17]~66_combout $end
$var wire 1 k counter[17]~67 $end
$var wire 1 l counter[18]~68_combout $end
$var wire 1 m counter[18]~69 $end
$var wire 1 n counter[19]~70_combout $end
$var wire 1 o counter[19]~71 $end
$var wire 1 p counter[20]~72_combout $end
$var wire 1 q counter[20]~73 $end
$var wire 1 r counter[21]~74_combout $end
$var wire 1 s counter[21]~75 $end
$var wire 1 t counter[22]~76_combout $end
$var wire 1 u counter[22]~77 $end
$var wire 1 v counter[23]~78_combout $end
$var wire 1 w counter[23]~79 $end
$var wire 1 x counter[24]~80_combout $end
$var wire 1 y counter[24]~81 $end
$var wire 1 z counter[25]~82_combout $end
$var wire 1 { counter[25]~83 $end
$var wire 1 | counter[26]~84_combout $end
$var wire 1 } counter[26]~85 $end
$var wire 1 ~ counter[27]~86_combout $end
$var wire 1 !! counter[27]~87 $end
$var wire 1 "! counter[28]~88_combout $end
$var wire 1 #! counter[28]~89 $end
$var wire 1 $! counter[29]~90_combout $end
$var wire 1 %! counter[29]~91 $end
$var wire 1 &! counter[30]~92_combout $end
$var wire 1 '! counter[30]~93 $end
$var wire 1 (! counter[31]~94_combout $end
$var wire 1 )! LessThan0~7_combout $end
$var wire 1 *! LessThan0~5_combout $end
$var wire 1 +! LessThan0~6_combout $end
$var wire 1 ,! LessThan0~3_combout $end
$var wire 1 -! LessThan0~1_combout $end
$var wire 1 .! LessThan0~2_combout $end
$var wire 1 /! LessThan0~0_combout $end
$var wire 1 0! LessThan0~4_combout $end
$var wire 1 1! LessThan0~8_combout $end
$var wire 1 2! LessThan0~9_combout $end
$var wire 1 3! counter[0]~33 $end
$var wire 1 4! counter[1]~34_combout $end
$var wire 1 5! counter[1]~35 $end
$var wire 1 6! counter[2]~36_combout $end
$var wire 1 7! counter[2]~37 $end
$var wire 1 8! counter[3]~38_combout $end
$var wire 1 9! Add1~14_combout $end
$var wire 1 :! Add1~10_combout $end
$var wire 1 ;! Add1~12_combout $end
$var wire 1 <! LessThan1~0_combout $end
$var wire 1 =! LessThan1~1_combout $end
$var wire 1 >! LessThan1~2_combout $end
$var wire 1 ?! pwm_out~q $end
$var wire 1 @! counter [31] $end
$var wire 1 A! counter [30] $end
$var wire 1 B! counter [29] $end
$var wire 1 C! counter [28] $end
$var wire 1 D! counter [27] $end
$var wire 1 E! counter [26] $end
$var wire 1 F! counter [25] $end
$var wire 1 G! counter [24] $end
$var wire 1 H! counter [23] $end
$var wire 1 I! counter [22] $end
$var wire 1 J! counter [21] $end
$var wire 1 K! counter [20] $end
$var wire 1 L! counter [19] $end
$var wire 1 M! counter [18] $end
$var wire 1 N! counter [17] $end
$var wire 1 O! counter [16] $end
$var wire 1 P! counter [15] $end
$var wire 1 Q! counter [14] $end
$var wire 1 R! counter [13] $end
$var wire 1 S! counter [12] $end
$var wire 1 T! counter [11] $end
$var wire 1 U! counter [10] $end
$var wire 1 V! counter [9] $end
$var wire 1 W! counter [8] $end
$var wire 1 X! counter [7] $end
$var wire 1 Y! counter [6] $end
$var wire 1 Z! counter [5] $end
$var wire 1 [! counter [4] $end
$var wire 1 \! counter [3] $end
$var wire 1 ]! counter [2] $end
$var wire 1 ^! counter [1] $end
$var wire 1 _! counter [0] $end
$upscope $end
$upscope $end
$enddefinitions $end
#0
$dumpvars
0!
b10000000 "
0#
0+
0*
0)
0(
0'
0&
0%
0$
0,
1-
x.
1/
10
11
02
03
04
05
06
07
08
09
0:
0;
1<
0=
0>
0?
0@
0A
0B
0C
0D
1E
0F
1G
0H
1I
0J
1K
0L
1M
0N
1O
0P
0Q
0R
1S
0T
0U
0V
1W
0X
0Y
0Z
1[
0\
0]
0^
1_
0`
0a
0b
1c
0d
0e
0f
1g
0h
0i
0j
1k
0l
0m
0n
1o
0p
0q
0r
1s
0t
0u
0v
1w
0x
0y
0z
1{
0|
0}
0~
1!!
0"!
0#!
0$!
1%!
0&!
0'!
0(!
1)!
1*!
1+!
1,!
1-!
1.!
1/!
10!
11!
02!
03!
04!
15!
06!
07!
08!
19!
1:!
0;!
1<!
1=!
1>!
0?!
0_!
0^!
0]!
0\!
0[!
0Z!
0Y!
0X!
0W!
0V!
0U!
0T!
0S!
0R!
0Q!
0P!
0O!
0N!
0M!
0L!
0K!
0J!
0I!
0H!
0G!
0F!
0E!
0D!
0C!
0B!
0A!
0@!
$end
#5000
1!
1:
1;
1_!
1?!
12
13
14
15
16
17
18
19
0<!
13!
1$
1%
1&
1'
1(
1)
1*
1+
0M
14!
#10000
1#
0!
1N
0:
0;
0_!
0?!
02
03
04
05
06
07
08
09
1<!
03!
0$
0%
0&
0'
0(
0)
0*
0+
1M
04!
#15000
1!
1:
1;
#20000
0#
0!
0N
0:
0;
#25000
1!
1:
1;
1_!
1?!
12
13
14
15
16
17
18
19
0<!
13!
1$
1%
1&
1'
1(
1)
1*
1+
0M
14!
#30000
0!
0:
0;
#35000
1!
1:
1;
1^!
0_!
05!
03!
04!
1M
15!
16!
14!
06!
#40000
0!
0:
0;
#45000
1!
1:
1;
1_!
13!
0M
05!
04!
16!
#50000
0!
0:
0;
#55000
1!
1:
1;
1]!
0^!
0_!
0=!
17!
1<!
15!
03!
06!
14!
1M
1=!
07!
0>!
18!
16!
04!
1>!
08!
#60000
0!
0:
0;
#65000
1!
1:
1;
1_!
0<!
13!
0M
0=!
14!
0>!
#70000
0!
0:
0;
#75000
1!
1:
1;
1^!
0_!
0?!
02
03
04
05
06
07
08
09
05!
03!
0$
0%
0&
0'
0(
0)
0*
0+
04!
1M
17!
15!
06!
14!
07!
18!
16!
08!
#80000
0!
0:
0;
#85000
1!
1:
1;
1_!
13!
0M
05!
04!
17!
06!
18!
#90000
0!
0:
0;
#95000
1!
1:
1;
1\!
0]!
0^!
0_!
0O
1=!
07!
1<!
15!
03!
08!
16!
14!
1M
1O
1P
18!
06!
04!
0P
#100000
0!
0:
0;
#105000
1!
1:
1;
1_!
0<!
13!
0M
14!
#110000
0!
0:
0;
#115000
1!
1:
1;
1^!
0_!
05!
12!
03!
04!
1M
15!
16!
14!
06!
#120000
0!
0:
0;
#125000
1!
1:
1;
0\!
0^!
02!
1<!
1>!
08!
04!
#130000
0!
0:
0;
#135000
1!
1:
1;
1_!
1?!
12
13
14
15
16
17
18
19
0<!
13!
1$
1%
1&
1'
1(
1)
1*
1+
0M
14!
#140000
0!
0:
0;
#145000
1!
1:
1;
1^!
0_!
05!
03!
04!
1M
15!
16!
14!
06!
#150000
0!
0:
0;
#155000
1!
1:
1;
1_!
13!
0M
05!
04!
16!
#160000
0!
0:
0;
#165000
1!
1:
1;
1]!
0^!
0_!
0=!
17!
1<!
15!
03!
06!
14!
1M
1=!
07!
0>!
18!
16!
04!
1>!
08!
#170000
0!
0:
0;
#175000
1!
1:
1;
1_!
0<!
13!
0M
0=!
14!
0>!
#180000
0!
0:
0;
#185000
1!
1:
1;
1^!
0_!
0?!
02
03
04
05
06
07
08
09
05!
03!
0$
0%
0&
0'
0(
0)
0*
0+
04!
1M
17!
15!
06!
14!
07!
18!
16!
08!
#190000
0!
0:
0;
#195000
1!
1:
1;
1_!
13!
0M
05!
04!
17!
06!
18!
#200000
0!
0:
0;
#205000
1!
1:
1;
1\!
0]!
0^!
0_!
0O
1=!
07!
1<!
15!
03!
08!
16!
14!
1M
1O
1P
18!
06!
04!
0P
#210000
0!
0:
0;
#215000
1!
1:
1;
1_!
0<!
13!
0M
14!
#220000
0!
0:
0;
#225000
1!
1:
1;
1^!
0_!
05!
12!
03!
04!
1M
15!
16!
14!
06!
#230000
0!
0:
0;
#235000
1!
1:
1;
0\!
0^!
02!
1<!
1>!
08!
04!
#240000
0!
0:
0;
#245000
1!
1:
1;
1_!
1?!
12
13
14
15
16
17
18
19
0<!
13!
1$
1%
1&
1'
1(
1)
1*
1+
0M
14!
#250000
0!
0:
0;
#255000
1!
1:
1;
1^!
0_!
05!
03!
04!
1M
15!
16!
14!
06!
#260000
0!
0:
0;
#265000
1!
1:
1;
1_!
13!
0M
05!
04!
16!
#270000
0!
0:
0;
#275000
1!
1:
1;
1]!
0^!
0_!
0=!
17!
1<!
15!
03!
06!
14!
1M
1=!
07!
0>!
18!
16!
04!
1>!
08!
#280000
0!
0:
0;
#285000
1!
1:
1;
1_!
0<!
13!
0M
0=!
14!
0>!
#290000
0!
0:
0;
#295000
1!
1:
1;
1^!
0_!
0?!
02
03
04
05
06
07
08
09
05!
03!
0$
0%
0&
0'
0(
0)
0*
0+
04!
1M
17!
15!
06!
14!
07!
18!
16!
08!
#300000
0!
0:
0;
#305000
1!
1:
1;
1_!
13!
0M
05!
04!
17!
06!
18!
#310000
0!
0:
0;
#315000
1!
1:
1;
1\!
0]!
0^!
0_!
0O
1=!
07!
1<!
15!
03!
08!
16!
14!
1M
1O
1P
18!
06!
04!
0P
#320000
0!
0:
0;
#325000
1!
1:
1;
1_!
0<!
13!
0M
14!
#330000
0!
0:
0;
#335000
1!
1:
1;
1^!
0_!
05!
12!
03!
04!
1M
15!
16!
14!
06!
#340000
0!
0:
0;
#345000
1!
1:
1;
0\!
0^!
02!
1<!
1>!
08!
04!
#350000
0!
0:
0;
#355000
1!
1:
1;
1_!
1?!
12
13
14
15
16
17
18
19
0<!
13!
1$
1%
1&
1'
1(
1)
1*
1+
0M
14!
#360000
0!
0:
0;
#365000
1!
1:
1;
1^!
0_!
05!
03!
04!
1M
15!
16!
14!
06!
#370000
0!
0:
0;
#375000
1!
1:
1;
1_!
13!
0M
05!
04!
16!
#380000
0!
0:
0;
#385000
1!
1:
1;
1]!
0^!
0_!
0=!
17!
1<!
15!
03!
06!
14!
1M
1=!
07!
0>!
18!
16!
04!
1>!
08!
#390000
0!
0:
0;
#395000
1!
1:
1;
1_!
0<!
13!
0M
0=!
14!
0>!
#400000
0!
0:
0;
#405000
1!
1:
1;
1^!
0_!
0?!
02
03
04
05
06
07
08
09
05!
03!
0$
0%
0&
0'
0(
0)
0*
0+
04!
1M
17!
15!
06!
14!
07!
18!
16!
08!
#410000
0!
0:
0;
#415000
1!
1:
1;
1_!
13!
0M
05!
04!
17!
06!
18!
#420000
0!
0:
0;
#425000
1!
1:
1;
1\!
0]!
0^!
0_!
0O
1=!
07!
1<!
15!
03!
08!
16!
14!
1M
1O
1P
18!
06!
04!
0P
#430000
0!
0:
0;
#435000
1!
1:
1;
1_!
0<!
13!
0M
14!
#440000
0!
0:
0;
#445000
1!
1:
1;
1^!
0_!
05!
12!
03!
04!
1M
15!
16!
14!
06!
#450000
0!
0:
0;
#455000
1!
1:
1;
0\!
0^!
02!
1<!
1>!
08!
04!
#460000
0!
0:
0;
#465000
1!
1:
1;
1_!
1?!
12
13
14
15
16
17
18
19
0<!
13!
1$
1%
1&
1'
1(
1)
1*
1+
0M
14!
#470000
0!
0:
0;
#475000
1!
1:
1;
1^!
0_!
05!
03!
04!
1M
15!
16!
14!
06!
#480000
0!
0:
0;
#485000
1!
1:
1;
1_!
13!
0M
05!
04!
16!
#490000
0!
0:
0;
#495000
1!
1:
1;
1]!
0^!
0_!
0=!
17!
1<!
15!
03!
06!
14!
1M
1=!
07!
0>!
18!
16!
04!
1>!
08!
#500000
0!
0:
0;
#505000
1!
1:
1;
1_!
0<!
13!
0M
0=!
14!
0>!
#510000
0!
0:
0;
#515000
1!
1:
1;
1^!
0_!
0?!
02
03
04
05
06
07
08
09
05!
03!
0$
0%
0&
0'
0(
0)
0*
0+
04!
1M
17!
15!
06!
14!
07!
18!
16!
08!
#520000
0!
0:
0;
#525000
1!
1:
1;
1_!
13!
0M
05!
04!
17!
06!
18!
#530000
0!
0:
0;
#535000
1!
1:
1;
1\!
0]!
0^!
0_!
0O
1=!
07!
1<!
15!
03!
08!
16!
14!
1M
1O
1P
18!
06!
04!
0P
#540000
0!
0:
0;
#545000
1!
1:
1;
1_!
0<!
13!
0M
14!
#550000
0!
0:
0;
#555000
1!
1:
1;
1^!
0_!
05!
12!
03!
04!
1M
15!
16!
14!
06!
#560000
0!
0:
0;
#565000
1!
1:
1;
0\!
0^!
02!
1<!
1>!
08!
04!
#570000
0!
0:
0;
#575000
1!
1:
1;
1_!
1?!
12
13
14
15
16
17
18
19
0<!
13!
1$
1%
1&
1'
1(
1)
1*
1+
0M
14!
#580000
0!
0:
0;
#585000
1!
1:
1;
1^!
0_!
05!
03!
04!
1M
15!
16!
14!
06!
#590000
0!
0:
0;
#595000
1!
1:
1;
1_!
13!
0M
05!
04!
16!
#600000
0!
0:
0;
#605000
1!
1:
1;
1]!
0^!
0_!
0=!
17!
1<!
15!
03!
06!
14!
1M
1=!
07!
0>!
18!
16!
04!
1>!
08!
#610000
0!
0:
0;
#615000
1!
1:
1;
1_!
0<!
13!
0M
0=!
14!
0>!
#620000
0!
0:
0;
#625000
1!
1:
1;
1^!
0_!
0?!
02
03
04
05
06
07
08
09
05!
03!
0$
0%
0&
0'
0(
0)
0*
0+
04!
1M
17!
15!
06!
14!
07!
18!
16!
08!
#630000
0!
0:
0;
#635000
1!
1:
1;
1_!
13!
0M
05!
04!
17!
06!
18!
#640000
0!
0:
0;
#645000
1!
1:
1;
1\!
0]!
0^!
0_!
0O
1=!
07!
1<!
15!
03!
08!
16!
14!
1M
1O
1P
18!
06!
04!
0P
#650000
0!
0:
0;
#655000
1!
1:
1;
1_!
0<!
13!
0M
14!
#660000
0!
0:
0;
#665000
1!
1:
1;
1^!
0_!
05!
12!
03!
04!
1M
15!
16!
14!
06!
#670000
0!
0:
0;
#675000
1!
1:
1;
0\!
0^!
02!
1<!
1>!
08!
04!
#680000
0!
0:
0;
#685000
1!
1:
1;
1_!
1?!
12
13
14
15
16
17
18
19
0<!
13!
1$
1%
1&
1'
1(
1)
1*
1+
0M
14!
#690000
0!
0:
0;
#695000
1!
1:
1;
1^!
0_!
05!
03!
04!
1M
15!
16!
14!
06!
#700000
0!
0:
0;
#705000
1!
1:
1;
1_!
13!
0M
05!
04!
16!
#710000
0!
0:
0;
#715000
1!
1:
1;
1]!
0^!
0_!
0=!
17!
1<!
15!
03!
06!
14!
1M
1=!
07!
0>!
18!
16!
04!
1>!
08!
#720000
0!
0:
0;
#725000
1!
1:
1;
1_!
0<!
13!
0M
0=!
14!
0>!
#730000
0!
0:
0;
#735000
1!
1:
1;
1^!
0_!
0?!
02
03
04
05
06
07
08
09
05!
03!
0$
0%
0&
0'
0(
0)
0*
0+
04!
1M
17!
15!
06!
14!
07!
18!
16!
08!
#740000
0!
0:
0;
#745000
1!
1:
1;
1_!
13!
0M
05!
04!
17!
06!
18!
#750000
0!
0:
0;
#755000
1!
1:
1;
1\!
0]!
0^!
0_!
0O
1=!
07!
1<!
15!
03!
08!
16!
14!
1M
1O
1P
18!
06!
04!
0P
#760000
0!
0:
0;
#765000
1!
1:
1;
1_!
0<!
13!
0M
14!
#770000
0!
0:
0;
#775000
1!
1:
1;
1^!
0_!
05!
12!
03!
04!
1M
15!
16!
14!
06!
#780000
0!
0:
0;
#785000
1!
1:
1;
0\!
0^!
02!
1<!
1>!
08!
04!
#790000
0!
0:
0;
#795000
1!
1:
1;
1_!
1?!
12
13
14
15
16
17
18
19
0<!
13!
1$
1%
1&
1'
1(
1)
1*
1+
0M
14!
#800000
0!
0:
0;
#805000
1!
1:
1;
1^!
0_!
05!
03!
04!
1M
15!
16!
14!
06!
#810000
0!
0:
0;
#815000
1!
1:
1;
1_!
13!
0M
05!
04!
16!
#820000
0!
0:
0;
#825000
1!
1:
1;
1]!
0^!
0_!
0=!
17!
1<!
15!
03!
06!
14!
1M
1=!
07!
0>!
18!
16!
04!
1>!
08!
#830000
0!
0:
0;
#835000
1!
1:
1;
1_!
0<!
13!
0M
0=!
14!
0>!
#840000
0!
0:
0;
#845000
1!
1:
1;
1^!
0_!
0?!
02
03
04
05
06
07
08
09
05!
03!
0$
0%
0&
0'
0(
0)
0*
0+
04!
1M
17!
15!
06!
14!
07!
18!
16!
08!
#850000
0!
0:
0;
#855000
1!
1:
1;
1_!
13!
0M
05!
04!
17!
06!
18!
#860000
0!
0:
0;
#865000
1!
1:
1;
1\!
0]!
0^!
0_!
0O
1=!
07!
1<!
15!
03!
08!
16!
14!
1M
1O
1P
18!
06!
04!
0P
#870000
0!
0:
0;
#875000
1!
1:
1;
1_!
0<!
13!
0M
14!
#880000
0!
0:
0;
#885000
1!
1:
1;
1^!
0_!
05!
12!
03!
04!
1M
15!
16!
14!
06!
#890000
0!
0:
0;
#895000
1!
1:
1;
0\!
0^!
02!
1<!
1>!
08!
04!
#900000
0!
0:
0;
#905000
1!
1:
1;
1_!
1?!
12
13
14
15
16
17
18
19
0<!
13!
1$
1%
1&
1'
1(
1)
1*
1+
0M
14!
#910000
0!
0:
0;
#915000
1!
1:
1;
1^!
0_!
05!
03!
04!
1M
15!
16!
14!
06!
#920000
0!
0:
0;
#925000
1!
1:
1;
1_!
13!
0M
05!
04!
16!
#930000
0!
0:
0;
#935000
1!
1:
1;
1]!
0^!
0_!
0=!
17!
1<!
15!
03!
06!
14!
1M
1=!
07!
0>!
18!
16!
04!
1>!
08!
#940000
0!
0:
0;
#945000
1!
1:
1;
1_!
0<!
13!
0M
0=!
14!
0>!
#950000
0!
0:
0;
#955000
1!
1:
1;
1^!
0_!
0?!
02
03
04
05
06
07
08
09
05!
03!
0$
0%
0&
0'
0(
0)
0*
0+
04!
1M
17!
15!
06!
14!
07!
18!
16!
08!
#960000
0!
0:
0;
#965000
1!
1:
1;
1_!
13!
0M
05!
04!
17!
06!
18!
#970000
0!
0:
0;
#975000
1!
1:
1;
1\!
0]!
0^!
0_!
0O
1=!
07!
1<!
15!
03!
08!
16!
14!
1M
1O
1P
18!
06!
04!
0P
#980000
0!
0:
0;
#985000
1!
1:
1;
1_!
0<!
13!
0M
14!
#990000
0!
0:
0;
#995000
1!
1:
1;
1^!
0_!
05!
12!
03!
04!
1M
15!
16!
14!
06!
