lab3/lab301/simulation/qsim/lab301PWM.msim.vcd
$comment
	File created using the following command:
		vcd file lab301PWM.msim.vcd -direction
$end
$date
	Mon Mar 24 19:11:56 2025
$end
$version
	ModelSim Version 10.5b
$end
$timescale
	1ps
$end

$scope module lab301PWM_vlg_vec_tst $end
$var reg 1 ! clk $end
$var reg 8 " duty [7:0] $end
$var reg 1 # rst_n $end
$var wire 1 $ pwm_out $end

$scope module i1 $end
$var wire 1 % gnd $end
$var wire 1 & vcc $end
$var wire 1 ' unknown $end
$var tri1 1 ( devclrn $end
$var tri1 1 ) devpor $end
$var tri1 1 * devoe $end
$var wire 1 + pwm_out~output_o $end
$var wire 1 , clk~input_o $end
$var wire 1 - clk~inputclkctrl_outclk $end
$var wire 1 . counter[0]~32_combout $end
$var wire 1 / rst_n~input_o $end
$var wire 1 0 rst_n~inputclkctrl_outclk $end
$var wire 1 1 counter[3]~39 $end
$var wire 1 2 counter[4]~40_combout $end
$var wire 1 3 counter[4]~41 $end
$var wire 1 4 counter[5]~42_combout $end
$var wire 1 5 counter[5]~43 $end
$var wire 1 6 counter[6]~44_combout $end
$var wire 1 7 counter[6]~45 $end
$var wire 1 8 counter[7]~46_combout $end
$var wire 1 9 counter[7]~47 $end
$var wire 1 : counter[8]~48_combout $end
$var wire 1 ; counter[8]~49 $end
$var wire 1 < counter[9]~50_combout $end
$var wire 1 = counter[9]~51 $end
$var wire 1 > counter[10]~52_combout $end
$var wire 1 ? counter[10]~53 $end
$var wire 1 @ counter[11]~54_combout $end
$var wire 1 A counter[11]~55 $end
$var wire 1 B counter[12]~56_combout $end
$var wire 1 C counter[12]~57 $end
$var wire 1 D counter[13]~58_combout $end
$var wire 1 E counter[13]~59 $end
$var wire 1 F counter[14]~60_combout $end
$var wire 1 G counter[14]~61 $end
$var wire 1 H counter[15]~62_combout $end
$var wire 1 I counter[15]~63 $end
$var wire 1 J counter[16]~64_combout $end
$var wire 1 K counter[16]~65 $end
$var wire 1 L counter[17]~66_combout $end
$var wire 1 M counter[17]~67 $end
$var wire 1 N counter[18]~68_combout $end
$var wire 1 O counter[18]~69 $end
$var wire 1 P counter[19]~70_combout $end
$var wire 1 Q counter[19]~71 $end
$var wire 1 R counter[20]~72_combout $end
$var wire 1 S counter[20]~73 $end
$var wire 1 T counter[21]~74_combout $end
$var wire 1 U counter[21]~75 $end
$var wire 1 V counter[22]~76_combout $end
$var wire 1 W counter[22]~77 $end
$var wire 1 X counter[23]~78_combout $end
$var wire 1 Y counter[23]~79 $end
$var wire 1 Z counter[24]~80_combout $end
$var wire 1 [ counter[24]~81 $end
$var wire 1 \ counter[25]~82_combout $end
$var wire 1 ] counter[25]~83 $end
$var wire 1 ^ counter[26]~84_combout $end
$var wire 1 _ counter[26]~85 $end
$var wire 1 ` counter[27]~86_combout $end
$var wire 1 a LessThan0~6_combout $end
$var wire 1 b LessThan0~5_combout $end
$var wire 1 c counter[27]~87 $end
$var wire 1 d counter[28]~88_combout $end
$var wire 1 e counter[28]~89 $end
$var wire 1 f counter[29]~90_combout $end
$var wire 1 g counter[29]~91 $end
$var wire 1 h counter[30]~92_combout $end
$var wire 1 i counter[30]~93 $end
$var wire 1 j counter[31]~94_combout $end
$var wire 1 k LessThan0~7_combout $end
$var wire 1 l LessThan0~0_combout $end
$var wire 1 m LessThan0~1_combout $end
$var wire 1 n LessThan0~2_combout $end
$var wire 1 o LessThan0~3_combout $end
$var wire 1 p LessThan0~4_combout $end
$var wire 1 q LessThan0~8_combout $end
$var wire 1 r LessThan0~9_combout $end
$var wire 1 s counter[0]~33 $end
$var wire 1 t counter[1]~34_combout $end
$var wire 1 u counter[1]~35 $end
$var wire 1 v counter[2]~36_combout $end
$var wire 1 w counter[2]~37 $end
$var wire 1 x counter[3]~38_combout $end
$var wire 1 y duty[7]~input_o $end
$var wire 1 z duty[6]~input_o $end
$var wire 1 { duty[5]~input_o $end
$var wire 1 | duty[4]~input_o $end
$var wire 1 } duty[3]~input_o $end
$var wire 1 ~ duty[2]~input_o $end
$var wire 1 !! duty[1]~input_o $end
$var wire 1 "! duty[0]~input_o $end
$var wire 1 #! Add1~1_cout $end
$var wire 1 $! Add1~3_cout $end
$var wire 1 %! Add1~5_cout $end
$var wire 1 &! Add1~7_cout $end
$var wire 1 '! Add1~9_cout $end
$var wire 1 (! Add1~11 $end
$var wire 1 )! Add1~13 $end
$var wire 1 *! Add1~15 $end
$var wire 1 +! Add1~16_combout $end
$var wire 1 ,! Add1~14_combout $end
$var wire 1 -! Add1~10_combout $end
$var wire 1 .! Add1~12_combout $end
$var wire 1 /! LessThan1~0_combout $end
$var wire 1 0! LessThan1~1_combout $end
$var wire 1 1! LessThan1~2_combout $end
$var wire 1 2! pwm_out~reg0_q $end
$var wire 1 3! counter [31] $end
$var wire 1 4! counter [30] $end
$var wire 1 5! counter [29] $end
$var wire 1 6! counter [28] $end
$var wire 1 7! counter [27] $end
$var wire 1 8! counter [26] $end
$var wire 1 9! counter [25] $end
$var wire 1 :! counter [24] $end
$var wire 1 ;! counter [23] $end
$var wire 1 <! counter [22] $end
$var wire 1 =! counter [21] $end
$var wire 1 >! counter [20] $end
$var wire 1 ?! counter [19] $end
$var wire 1 @! counter [18] $end
$var wire 1 A! counter [17] $end
$var wire 1 B! counter [16] $end
$var wire 1 C! counter [15] $end
$var wire 1 D! counter [14] $end
$var wire 1 E! counter [13] $end
$var wire 1 F! counter [12] $end
$var wire 1 G! counter [11] $end
$var wire 1 H! counter [10] $end
$var wire 1 I! counter [9] $end
$var wire 1 J! counter [8] $end
$var wire 1 K! counter [7] $end
$var wire 1 L! counter [6] $end
$var wire 1 M! counter [5] $end
$var wire 1 N! counter [4] $end
$var wire 1 O! counter [3] $end
$var wire 1 P! counter [2] $end
$var wire 1 Q! counter [1] $end
$var wire 1 R! counter [0] $end
$upscope $end
$upscope $end
$enddefinitions $end
#0
$dumpvars
0!
b10000000 "
0#
0$
0%
1&
x'
1(
1)
1*
0+
0,
0-
1.
0/
00
11
02
03
04
15
06
07
08
19
0:
0;
0<
1=
0>
0?
0@
1A
0B
0C
0D
1E
0F
0G
0H
1I
0J
0K
0L
1M
0N
0O
0P
1Q
0R
0S
0T
1U
0V
0W
0X
1Y
0Z
0[
0\
1]
0^
0_
0`
1a
1b
1c
0d
0e
0f
1g
0h
0i
0j
1k
1l
1m
1n
1o
1p
1q
0r
0s
0t
1u
0v
0w
0x
1y
0z
0{
0|
0}
0~
0!!
0"!
0#!
1$!
0%!
1&!
0'!
1(!
0)!
1*!
0+!
1,!
1-!
0.!
1/!
10!
11!
02!
0R!
0Q!
0P!
0O!
0N!
0M!
0L!
0K!
0J!
0I!
0H!
0G!
0F!
0E!
0D!
0C!
0B!
0A!
0@!
0?!
0>!
0=!
0<!
0;!
0:!
09!
08!
07!
06!
05!
04!
03!
$end
#500
1!
1,
1-
#1000
0!
0,
0-
#1500
1!
1,
1-
#2000
0!
0,
0-
#2500
1!
1,
1-
#3000
0!
0,
0-
#3500
1!
1,
1-
#4000
0!
0,
0-
#4500
1!
1,
1-
#5000
0!
0,
0-
#5500
1!
1,
1-
#6000
0!
0,
0-
#6500
1!
1,
1-
#7000
0!
0,
0-
#7500
1!
1,
1-
#8000
0!
0,
0-
#8500
1!
1,
1-
#9000
0!
0,
0-
#9500
1!
1,
1-
#10000
0!
0,
0-
#10500
1!
1,
1-
#11000
0!
0,
0-
#11500
1!
1,
1-
#12000
0!
0,
0-
#12500
1!
1,
1-
#13000
0!
0,
0-
#13500
1!
1,
1-
#14000
0!
0,
0-
#14500
1!
1,
1-
#15000
0!
0,
0-
#15500
1!
1,
1-
#16000
0!
0,
0-
#16500
1!
1,
1-
#17000
0!
0,
0-
#17500
1!
1,
1-
#18000
0!
0,
0-
#18500
1!
1,
1-
#19000
0!
0,
0-
#19500
1!
1,
1-
#20000
1#
0!
1/
0,
10
0-
#20500
1!
1,
1-
1R!
12!
1+
0/!
1s
1$
0.
1t
#21000
0!
0,
0-
#21500
1!
1,
1-
1Q!
0R!
0u
0s
0t
1.
1u
1v
1t
0v
#22000
0!
0,
0-
#22500
1!
1,
1-
1R!
1s
0.
0u
0t
1v
#23000
0!
0,
0-
#23500
1!
1,
1-
1P!
0Q!
0R!
00!
1w
1/!
1u
0s
0v
1t
1.
10!
0w
01!
1x
1v
0t
11!
0x
#24000
0!
0,
0-
#24500
1!
1,
1-
1R!
0/!
1s
0.
00!
1t
01!
#25000
0!
0,
0-
#25500
1!
1,
1-
1Q!
0R!
02!
0+
0u
0s
0$
0t
1.
1w
1u
0v
1t
0w
1x
1v
0x
#26000
0!
0,
0-
#26500
1!
1,
1-
1R!
1s
0.
0u
0t
1w
0v
1x
#27000
0!
0,
0-
#27500
1!
1,
1-
1O!
0P!
0Q!
0R!
01
10!
0w
1/!
1u
0s
0x
1v
1t
1.
11
12
1x
0v
0t
02
#28000
0!
0,
0-
#28500
1!
1,
1-
1R!
0/!
1s
0.
1t
#29000
0!
0,
0-
#29500
1!
1,
1-
1Q!
0R!
0u
1r
0s
0t
1.
1u
1v
1t
0v
#30000
0!
0,
0-
#30500
1!
1,
1-
0O!
0Q!
0r
1/!
11!
0x
0t
#31000
0!
0,
0-
#31500
1!
1,
1-
1R!
12!
1+
0/!
1s
1$
0.
1t
#32000
0!
0,
0-
#32500
1!
1,
1-
1Q!
0R!
0u
0s
0t
1.
1u
1v
1t
0v
#33000
0!
0,
0-
#33500
1!
1,
1-
1R!
1s
0.
0u
0t
1v
#34000
0!
0,
0-
#34500
1!
1,
1-
1P!
0Q!
0R!
00!
1w
1/!
1u
0s
0v
1t
1.
10!
0w
01!
1x
1v
0t
11!
0x
#35000
0!
0,
0-
#35500
1!
1,
1-
1R!
0/!
1s
0.
00!
1t
01!
#36000
0!
0,
0-
#36500
1!
1,
1-
1Q!
0R!
02!
0+
0u
0s
0$
0t
1.
1w
1u
0v
1t
0w
1x
1v
0x
#37000
0!
0,
0-
#37500
1!
1,
1-
1R!
1s
0.
0u
0t
1w
0v
1x
#38000
0!
0,
0-
#38500
1!
1,
1-
1O!
0P!
0Q!
0R!
01
10!
0w
1/!
1u
0s
0x
1v
1t
1.
11
12
1x
0v
0t
02
#39000
0!
0,
0-
#39500
1!
1,
1-
1R!
0/!
1s
0.
1t
#40000
0!
0,
0-
#40500
1!
1,
1-
1Q!
0R!
0u
1r
0s
0t
1.
1u
1v
1t
0v
#41000
0!
0,
0-
#41500
1!
1,
1-
0O!
0Q!
0r
1/!
11!
0x
0t
#42000
0!
0,
0-
#42500
1!
1,
1-
1R!
12!
1+
0/!
1s
1$
0.
1t
#43000
0!
0,
0-
#43500
1!
1,
1-
1Q!
0R!
0u
0s
0t
1.
1u
1v
1t
0v
#44000
0!
0,
0-
#44500
1!
1,
1-
1R!
1s
0.
0u
0t
1v
#45000
0!
0,
0-
#45500
1!
1,
1-
1P!
0Q!
0R!
00!
1w
1/!
1u
0s
0v
1t
1.
10!
0w
01!
1x
1v
0t
11!
0x
#46000
0!
0,
0-
#46500
1!
1,
1-
1R!
0/!
1s
0.
00!
1t
01!
#47000
0!
0,
0-
#47500
1!
1,
1-
1Q!
0R!
02!
0+
0u
0s
0$
0t
1.
1w
1u
0v
1t
0w
1x
1v
0x
#48000
0!
0,
0-
#48500
1!
1,
1-
1R!
1s
0.
0u
0t
1w
0v
1x
#49000
0!
0,
0-
#49500
1!
1,
1-
1O!
0P!
0Q!
0R!
01
10!
0w
1/!
1u
0s
0x
1v
1t
1.
11
12
1x
0v
0t
02
#50000
0!
0,
0-
#50500
1!
1,
1-
1R!
0/!
1s
0.
1t
#51000
0!
0,
0-
#51500
1!
1,
1-
1Q!
0R!
0u
1r
0s
0t
1.
1u
1v
1t
0v
#52000
0!
0,
0-
#52500
1!
1,
1-
0O!
0Q!
0r
1/!
11!
0x
0t
#53000
0!
0,
0-
#53500
1!
1,
1-
1R!
12!
1+
0/!
1s
1$
0.
1t
#54000
0!
0,
0-
#54500
1!
1,
1-
1Q!
0R!
0u
0s
0t
1.
1u
1v
1t
0v
#55000
0!
0,
0-
#55500
1!
1,
1-
1R!
1s
0.
0u
0t
1v
#56000
0!
0,
0-
#56500
1!
1,
1-
1P!
0Q!
0R!
00!
1w
1/!
1u
0s
0v
1t
1.
10!
0w
01!
1x
1v
0t
11!
0x
#57000
0!
0,
0-
#57500
1!
1,
1-
1R!
0/!
1s
0.
00!
1t
01!
#58000
0!
0,
0-
#58500
1!
1,
1-
1Q!
0R!
02!
0+
0u
0s
0$
0t
1.
1w
1u
0v
1t
0w
1x
1v
0x
#59000
0!
0,
0-
#59500
1!
1,
1-
1R!
1s
0.
0u
0t
1w
0v
1x
#60000
0!
0,
0-
#60500
1!
1,
1-
1O!
0P!
0Q!
0R!
01
10!
0w
1/!
1u
0s
0x
1v
1t
1.
11
12
1x
0v
0t
02
#61000
0!
0,
0-
#61500
1!
1,
1-
1R!
0/!
1s
0.
1t
#62000
0!
0,
0-
#62500
1!
1,
1-
1Q!
0R!
0u
1r
0s
0t
1.
1u
1v
1t
0v
#63000
0!
0,
0-
#63500
1!
1,
1-
0O!
0Q!
0r
1/!
11!
0x
0t
#64000
0!
0,
0-
#64500
1!
1,
1-
1R!
12!
1+
0/!
1s
1$
0.
1t
#65000
0!
0,
0-
#65500
1!
1,
1-
1Q!
0R!
0u
0s
0t
1.
1u
1v
1t
0v
#66000
0!
0,
0-
#66500
1!
1,
1-
1R!
1s
0.
0u
0t
1v
#67000
0!
0,
0-
#67500
1!
1,
1-
1P!
0Q!
0R!
00!
1w
1/!
1u
0s
0v
1t
1.
10!
0w
01!
1x
1v
0t
11!
0x
#68000
0!
0,
0-
#68500
1!
1,
1-
1R!
0/!
1s
0.
00!
1t
01!
#69000
0!
0,
0-
#69500
1!
1,
1-
1Q!
0R!
02!
0+
0u
0s
0$
0t
1.
1w
1u
0v
1t
0w
1x
1v
0x
#70000
0!
0,
0-
#70500
1!
1,
1-
1R!
1s
0.
0u
0t
1w
0v
1x
#71000
0!
0,
0-
#71500
1!
1,
1-
1O!
0P!
0Q!
0R!
01
10!
0w
1/!
1u
0s
0x
1v
1t
1.
11
12
1x
0v
0t
02
#72000
0!
0,
0-
#72500
1!
1,
1-
1R!
0/!
1s
0.
1t
#73000
0!
0,
0-
#73500
1!
1,
1-
1Q!
0R!
0u
1r
0s
0t
1.
1u
1v
1t
0v
#74000
0!
0,
0-
#74500
1!
1,
1-
0O!
0Q!
0r
1/!
11!
0x
0t
#75000
0!
0,
0-
#75500
1!
1,
1-
1R!
12!
1+
0/!
1s
1$
0.
1t
#76000
0!
0,
0-
#76500
1!
1,
1-
1Q!
0R!
0u
0s
0t
1.
1u
1v
1t
0v
#77000
0!
0,
0-
#77500
1!
1,
1-
1R!
1s
0.
0u
0t
1v
#78000
0!
0,
0-
#78500
1!
1,
1-
1P!
0Q!
0R!
00!
1w
1/!
1u
0s
0v
1t
1.
10!
0w
01!
1x
1v
0t
11!
0x
#79000
0!
0,
0-
#79500
1!
1,
1-
1R!
0/!
1s
0.
00!
1t
01!
#80000
0!
0,
0-
#80500
1!
1,
1-
1Q!
0R!
02!
0+
0u
0s
0$
0t
1.
1w
1u
0v
1t
0w
1x
1v
0x
#81000
0!
0,
0-
#81500
1!
1,
1-
1R!
1s
0.
0u
0t
1w
0v
1x
#82000
0!
0,
0-
#82500
1!
1,
1-
1O!
0P!
0Q!
0R!
01
10!
0w
1/!
1u
0s
0x
1v
1t
1.
11
12
1x
0v
0t
02
#83000
0!
0,
0-
#83500
1!
1,
1-
1R!
0/!
1s
0.
1t
#84000
0!
0,
0-
#84500
1!
1,
1-
1Q!
0R!
0u
1r
0s
0t
1.
1u
1v
1t
0v
#85000
0!
0,
0-
#85500
1!
1,
1-
0O!
0Q!
0r
1/!
11!
0x
0t
#86000
0!
0,
0-
#86500
1!
1,
1-
1R!
12!
1+
0/!
1s
1$
0.
1t
#87000
0!
0,
0-
#87500
1!
1,
1-
1Q!
0R!
0u
0s
0t
1.
1u
1v
1t
0v
#88000
0!
0,
0-
#88500
1!
1,
1-
1R!
1s
0.
0u
0t
1v
#89000
0!
0,
0-
#89500
1!
1,
1-
1P!
0Q!
0R!
00!
1w
1/!
1u
0s
0v
1t
1.
10!
0w
01!
1x
1v
0t
11!
0x
#90000
0!
0,
0-
#90500
1!
1,
1-
1R!
0/!
1s
0.
00!
1t
01!
#91000
0!
0,
0-
#91500
1!
1,
1-
1Q!
0R!
02!
0+
0u
0s
0$
0t
1.
1w
1u
0v
1t
0w
1x
1v
0x
#92000
0!
0,
0-
#92500
1!
1,
1-
1R!
1s
0.
0u
0t
1w
0v
1x
#93000
0!
0,
0-
#93500
1!
1,
1-
1O!
0P!
0Q!
0R!
01
10!
0w
1/!
1u
0s
0x
1v
1t
1.
11
12
1x
0v
0t
02
#94000
0!
0,
0-
#94500
1!
1,
1-
1R!
0/!
1s
0.
1t
#95000
0!
0,
0-
#95500
1!
1,
1-
1Q!
0R!
0u
1r
0s
0t
1.
1u
1v
1t
0v
#96000
0!
0,
0-
#96500
1!
1,
1-
0O!
0Q!
0r
1/!
11!
0x
0t
#97000
0!
0,
0-
#97500
1!
1,
1-
1R!
12!
1+
0/!
1s
1$
0.
1t
#98000
0!
0,
0-
#98500
1!
1,
1-
1Q!
0R!
0u
0s
0t
1.
1u
1v
1t
0v
#99000
0!
0,
0-
#99500
1!
1,
1-
1R!
1s
0.
0u
0t
1v
#100000
0!
0,
0-
#100500
1!
1,
1-
1P!
0Q!
0R!
00!
1w
1/!
1u
0s
0v
1t
1.
10!
0w
01!
1x
1v
0t
11!
0x
#101000
0!
0,
0-
#101500
1!
1,
1-
1R!
0/!
1s
0.
00!
1t
01!
#102000
0!
0,
0-
#102500
1!
1,
1-
1Q!
0R!
02!
0+
0u
0s
0$
0t
1.
1w
1u
0v
1t
0w
1x
1v
0x
#103000
0!
0,
0-
#103500
1!
1,
1-
1R!
1s
0.
0u
0t
1w
0v
1x
#104000
0!
0,
0-
#104500
1!
1,
1-
1O!
0P!
0Q!
0R!
01
10!
0w
1/!
1u
0s
0x
1v
1t
1.
11
12
1x
0v
0t
02
#105000
0!
0,
0-
#105500
1!
1,
1-
1R!
0/!
1s
0.
1t
#106000
0!
0,
0-
#106500
1!
1,
1-
1Q!
0R!
0u
1r
0s
0t
1.
1u
1v
1t
0v
#107000
0!
0,
0-
#107500
1!
1,
1-
0O!
0Q!
0r
1/!
11!
0x
0t
#108000
0!
0,
0-
#108500
1!
1,
1-
1R!
12!
1+
0/!
1s
1$
0.
1t
#109000
0!
0,
0-
#109500
1!
1,
1-
1Q!
0R!
0u
0s
0t
1.
1u
1v
1t
0v
#110000
0!
0,
0-
#110500
1!
1,
1-
1R!
1s
0.
0u
0t
1v
#111000
0!
0,
0-
#111500
1!
1,
1-
1P!
0Q!
0R!
00!
1w
1/!
1u
0s
0v
1t
1.
10!
0w
01!
1x
1v
0t
11!
0x
#112000
0!
0,
0-
#112500
1!
1,
1-
1R!
0/!
1s
0.
00!
1t
01!
#113000
0!
0,
0-
#113500
1!
1,
1-
1Q!
0R!
02!
0+
0u
0s
0$
0t
1.
1w
1u
0v
1t
0w
1x
1v
0x
#114000
0!
0,
0-
#114500
1!
1,
1-
1R!
1s
0.
0u
0t
1w
0v
1x
#115000
0!
0,
0-
#115500
1!
1,
1-
1O!
0P!
0Q!
0R!
01
10!
0w
1/!
1u
0s
0x
1v
1t
1.
11
12
1x
0v
0t
02
#116000
0!
0,
0-
#116500
1!
1,
1-
1R!
0/!
1s
0.
1t
#117000
0!
0,
0-
#117500
1!
1,
1-
1Q!
0R!
0u
1r
0s
0t
1.
1u
1v
1t
0v
#118000
0!
0,
0-
#118500
1!
1,
1-
0O!
0Q!
0r
1/!
11!
0x
0t
#119000
0!
0,
0-
#119500
1!
1,
1-
1R!
12!
1+
0/!
1s
1$
0.
1t
#120000
0!
0,
0-
#120500
1!
1,
1-
1Q!
0R!
0u
0s
0t
1.
1u
1v
1t
0v
#121000
0!
0,
0-
#121500
1!
1,
1-
1R!
1s
0.
0u
0t
1v
#122000
0!
0,
0-
#122500
1!
1,
1-
1P!
0Q!
0R!
00!
1w
1/!
1u
0s
0v
1t
1.
10!
0w
01!
1x
1v
0t
11!
0x
#123000
0!
0,
0-
#123500
1!
1,
1-
1R!
0/!
1s
0.
00!
1t
01!
#124000
0!
0,
0-
#124500
1!
1,
1-
1Q!
0R!
02!
0+
0u
0s
0$
0t
1.
1w
1u
0v
1t
0w
1x
1v
0x
#125000
0!
0,
0-
#125500
1!
1,
1-
1R!
1s
0.
0u
0t
1w
0v
1x
#126000
0!
0,
0-
#126500
1!
1,
1-
1O!
0P!
0Q!
0R!
01
10!
0w
1/!
1u
0s
0x
1v
1t
1.
11
12
1x
0v
0t
02
#127000
0!
0,
0-
#127500
1!
1,
1-
1R!
0/!
1s
0.
1t
#128000
0!
0,
0-
#128500
1!
1,
1-
1Q!
0R!
0u
1r
0s
0t
1.
1u
1v
1t
0v
#129000
0!
0,
0-
#129500
1!
1,
1-
0O!
0Q!
0r
1/!
11!
0x
0t
#130000
0!
0,
0-
#130500
1!
1,
1-
1R!
12!
1+
0/!
1s
1$
0.
1t
#131000
0!
0,
0-
#131500
1!
1,
1-
1Q!
0R!
0u
0s
0t
1.
1u
1v
1t
0v
#132000
0!
0,
0-
#132500
1!
1,
1-
1R!
1s
0.
0u
0t
1v
#133000
0!
0,
0-
#133500
1!
1,
1-
1P!
0Q!
0R!
00!
1w
1/!
1u
0s
0v
1t
1.
10!
0w
01!
1x
1v
0t
11!
0x
#134000
0!
0,
0-
#134500
1!
1,
1-
1R!
0/!
1s
0.
00!
1t
01!
#135000
0!
0,
0-
#135500
1!
1,
1-
1Q!
0R!
02!
0+
0u
0s
0$
0t
1.
1w
1u
0v
1t
0w
1x
1v
0x
#136000
0!
0,
0-
#136500
1!
1,
1-
1R!
1s
0.
0u
0t
1w
0v
1x
#137000
0!
0,
0-
#137500
1!
1,
1-
1O!
0P!
0Q!
0R!
01
10!
0w
1/!
1u
0s
0x
1v
1t
1.
11
12
1x
0v
0t
02
#138000
0!
0,
0-
#138500
1!
1,
1-
1R!
0/!
1s
0.
1t
#139000
0!
0,
0-
#139500
1!
1,
1-
1Q!
0R!
0u
1r
0s
0t
1.
1u
1v
1t
0v
#140000
0!
0,
0-
#140500
1!
1,
1-
0O!
0Q!
0r
1/!
11!
0x
0t
#141000
0!
0,
0-
#141500
1!
1,
1-
1R!
12!
1+
0/!
1s
1$
0.
1t
#142000
0!
0,
0-
#142500
1!
1,
1-
1Q!
0R!
0u
0s
0t
1.
1u
1v
1t
0v
#143000
0!
0,
0-
#143500
1!
1,
1-
1R!
1s
0.
0u
0t
1v
#144000
0!
0,
0-
#144500
1!
1,
1-
1P!
0Q!
0R!
00!
1w
1/!
1u
0s
0v
1t
1.
10!
0w
01!
1x
1v
0t
11!
0x
#145000
0!
0,
0-
#145500
1!
1,
1-
1R!
0/!
1s
0.
00!
1t
01!
#146000
0!
0,
0-
#146500
1!
1,
1-
1Q!
0R!
02!
0+
0u
0s
0$
0t
1.
1w
1u
0v
1t
0w
1x
1v
0x
#147000
0!
0,
0-
#147500
1!
1,
1-
1R!
1s
0.
0u
0t
1w
0v
1x
#148000
0!
0,
0-
#148500
1!
1,
1-
1O!
0P!
0Q!
0R!
01
10!
0w
1/!
1u
0s
0x
1v
1t
1.
11
12
1x
0v
0t
02
#149000
0!
0,
0-
#149500
1!
1,
1-
1R!
0/!
1s
0.
1t
#150000
0!
0,
0-
#150500
1!
1,
1-
1Q!
0R!
0u
1r
0s
0t
1.
1u
1v
1t
0v
#151000
0!
0,
0-
#151500
1!
1,
1-
0O!
0Q!
0r
1/!
11!
0x
0t
#152000
0!
0,
0-
#152500
1!
1,
1-
1R!
12!
1+
0/!
1s
1$
0.
1t
#153000
0!
0,
0-
#153500
1!
1,
1-
1Q!
0R!
0u
0s
0t
1.
1u
1v
1t
0v
#154000
0!
0,
0-
#154500
1!
1,
1-
1R!
1s
0.
0u
0t
1v
#155000
0!
0,
0-
#155500
1!
1,
1-
1P!
0Q!
0R!
00!
1w
1/!
1u
0s
0v
1t
1.
10!
0w
01!
1x
1v
0t
11!
0x
#156000
0!
0,
0-
#156500
1!
1,
1-
1R!
0/!
1s
0.
00!
1t
01!
#157000
0!
0,
0-
#157500
1!
1,
1-
1Q!
0R!
02!
0+
0u
0s
0$
0t
1.
1w
1u
0v
1t
0w
1x
1v
0x
#158000
0!
0,
0-
#158500
1!
1,
1-
1R!
1s
0.
0u
0t
1w
0v
1x
#159000
0!
0,
0-
#159500
1!
1,
1-
1O!
0P!
0Q!
0R!
01
10!
0w
1/!
1u
0s
0x
1v
1t
1.
11
12
1x
0v
0t
02
#160000
0!
0,
0-
#160500
1!
1,
1-
1R!
0/!
1s
0.
1t
#161000
0!
0,
0-
#161500
1!
1,
1-
1Q!
0R!
0u
1r
0s
0t
1.
1u
1v
1t
0v
#162000
0!
0,
0-
#162500
1!
1,
1-
0O!
0Q!
0r
1/!
11!
0x
0t
#163000
0!
0,
0-
#163500
1!
1,
1-
1R!
12!
1+
0/!
1s
1$
0.
1t
#164000
0!
0,
0-
#164500
1!
1,
1-
1Q!
0R!
0u
0s
0t
1.
1u
1v
1t
0v
#165000
0!
0,
0-
#165500
1!
1,
1-
1R!
1s
0.
0u
0t
1v
#166000
0!
0,
0-
#166500
1!
1,
1-
1P!
0Q!
0R!
00!
1w
1/!
1u
0s
0v
1t
1.
10!
0w
01!
1x
1v
0t
11!
0x
#167000
0!
0,
0-
#167500
1!
1,
1-
1R!
0/!
1s
0.
00!
1t
01!
#168000
0!
0,
0-
#168500
1!
1,
1-
1Q!
0R!
02!
0+
0u
0s
0$
0t
1.
1w
1u
0v
1t
0w
1x
1v
0x
#169000
0!
0,
0-
#169500
1!
1,
1-
1R!
1s
0.
0u
0t
1w
0v
1x
#170000
0!
0,
0-
#170500
1!
1,
1-
1O!
0P!
0Q!
0R!
01
10!
0w
1/!
1u
0s
0x
1v
1t
1.
11
12
1x
0v
0t
02
#171000
0!
0,
0-
#171500
1!
1,
1-
1R!
0/!
1s
0.
1t
#172000
0!
0,
0-
#172500
1!
1,
1-
1Q!
0R!
0u
1r
0s
0t
1.
1u
1v
1t
0v
#173000
0!
0,
0-
#173500
1!
1,
1-
0O!
0Q!
0r
1/!
11!
0x
0t
#174000
0!
0,
0-
#174500
1!
1,
1-
1R!
12!
1+
0/!
1s
1$
0.
1t
#175000
0!
0,
0-
#175500
1!
1,
1-
1Q!
0R!
0u
0s
0t
1.
1u
1v
1t
0v
#176000
0!
0,
0-
#176500
1!
1,
1-
1R!
1s
0.
0u
0t
1v
#177000
0!
0,
0-
#177500
1!
1,
1-
1P!
0Q!
0R!
00!
1w
1/!
1u
0s
0v
1t
1.
10!
0w
01!
1x
1v
0t
11!
0x
#178000
0!
0,
0-
#178500
1!
1,
1-
1R!
0/!
1s
0.
00!
1t
01!
#179000
0!
0,
0-
#179500
1!
1,
1-
1Q!
0R!
02!
0+
0u
0s
0$
0t
1.
1w
1u
0v
1t
0w
1x
1v
0x
#180000
0!
0,
0-
#180500
1!
1,
1-
1R!
1s
0.
0u
0t
1w
0v
1x
#181000
0!
0,
0-
#181500
1!
1,
1-
1O!
0P!
0Q!
0R!
01
10!
0w
1/!
1u
0s
0x
1v
1t
1.
11
12
1x
0v
0t
02
#182000
0!
0,
0-
#182500
1!
1,
1-
1R!
0/!
1s
0.
1t
#183000
0!
0,
0-
#183500
1!
1,
1-
1Q!
0R!
0u
1r
0s
0t
1.
1u
1v
1t
0v
#184000
0!
0,
0-
#184500
1!
1,
1-
0O!
0Q!
0r
1/!
11!
0x
0t
#185000
0!
0,
0-
#185500
1!
1,
1-
1R!
12!
1+
0/!
1s
1$
0.
1t
#186000
0!
0,
0-
#186500
1!
1,
1-
1Q!
0R!
0u
0s
0t
1.
1u
1v
1t
0v
#187000
0!
0,
0-
#187500
1!
1,
1-
1R!
1s
0.
0u
0t
1v
#188000
0!
0,
0-
#188500
1!
1,
1-
1P!
0Q!
0R!
00!
1w
1/!
1u
0s
0v
1t
1.
10!
0w
01!
1x
1v
0t
11!
0x
#189000
0!
0,
0-
#189500
1!
1,
1-
1R!
0/!
1s
0.
00!
1t
01!
#190000
0!
0,
0-
#190500
1!
1,
1-
1Q!
0R!
02!
0+
0u
0s
0$
0t
1.
1w
1u
0v
1t
0w
1x
1v
0x
#191000
0!
0,
0-
#191500
1!
1,
1-
1R!
1s
0.
0u
0t
1w
0v
1x
#192000
0!
0,
0-
#192500
1!
1,
1-
1O!
0P!
0Q!
0R!
01
10!
0w
1/!
1u
0s
0x
1v
1t
1.
11
12
1x
0v
0t
02
#193000
0!
0,
0-
#193500
1!
1,
1-
1R!
0/!
1s
0.
1t
#194000
0!
0,
0-
#194500
1!
1,
1-
1Q!
0R!
0u
1r
0s
0t
1.
1u
1v
1t
0v
#195000
0!
0,
0-
#195500
1!
1,
1-
0O!
0Q!
0r
1/!
11!
0x
0t
#196000
0!
0,
0-
#196500
1!
1,
1-
1R!
12!
1+
0/!
1s
1$
0.
1t
#197000
0!
0,
0-
#197500
1!
1,
1-
1Q!
0R!
0u
0s
0t
1.
1u
1v
1t
0v
#198000
0!
0,
0-
#198500
1!
1,
1-
1R!
1s
0.
0u
0t
1v
#199000
0!
0,
0-
#199500
1!
1,
1-
1P!
0Q!
0R!
00!
1w
1/!
1u
0s
0v
1t
1.
10!
0w
01!
1x
1v
0t
11!
0x
#200000
0!
0,
0-
#200500
1!
1,
1-
1R!
0/!
1s
0.
00!
1t
01!
#201000
0!
0,
0-
